{
  "Object" : "Gauge",
  "ObjectId" : "O1",
  "ObjectData" : [
    {
      "name" : "gauge",
	  "object_name" : "Gauge",
      "id" : 3,
	  "width" : 4,
	  "open_new_row": 1,
      "data" : {
        "options": {
          "lines": 12,
          "angle": 0.15,
          "lineWidth": 0.44,
          "pointer": {
            "length": 1,
            "strokeWidth": 0.035,
            "color": "#000000"
          },
          "limitMax": "false",
          "colorStart": "#6FADCF",
          "colorStop": "#8FC0DA",
          "strokeColor": "#f2f2f2",
          "generateGradient": true,
          "percentColors": [
            [0.0, "#1693A5"],
            [1.0, "#1693A5"]
          ]
        },
        "content": {
          "maxValue": 3000,
          "animationSpeed": 40,
          "val": 658
        }
      }
    }
  ]
}

























