{
  "Object": "Ordered chart",
  "ObjectId": "O4",
  "ObjectData": [
    {
      "name": "ordered",
      "object_name": "Ordered-Chart",
      "id": 6,
      "width": 4,
      "open_new_row": 1,
      "option": {
        "series": {
          "shadowSize": 0
        },
        "bars": {
          "show": true,
          "fill": true,
          "lineWidth": 0,
          "fillColor": {
            "colors": [
              {
                "opacity": 0.6
              },
              {
                "opacity": 0.8
              }
            ]
          },
          "order": 1,
          "colors": [
            "#428bca",
            "#d9534f",
            "#A40778"
          ]
        },
        "xaxis": {
          "font": {
            "color": "#ccc"
          }
        },
        "yaxis": {
          "font": {
            "color": "#ccc"
          }
        },
        "grid": {
          "hoverable": true,
          "clickable": true,
          "borderWidth": 0,
          "color": "#ccc"
        },
        "tooltip": true
      },
      "dataset": [
        {
          "label": "A",
          "data": [
            [
              10,
              50,
              null,
              8.384057971014492
            ],
            [
              20,
              80,
              null,
              18.384057971014492
            ],
            [
              30,
              60,
              null,
              28.384057971014492
            ],
            [
              40,
              40,
              null,
              38.38405797101449
            ]
          ]
        },
        {
          "label": "B",
          "data": [
            [
              10,
              30,
              null,
              9.5
            ],
            [
              20,
              50,
              null,
              19.5
            ],
            [
              30,
              70,
              null,
              29.5
            ],
            [
              40,
              50,
              null,
              39.5
            ]
          ]
        },
        {
          "label": "C",
          "data": [
            [
              10,
              40,
              null,
              10.615942028985508
            ],
            [
              20,
              60,
              null,
              20.615942028985508
            ],
            [
              30,
              90,
              null,
              30.615942028985508
            ],
            [
              40,
              60,
              null,
              40.61594202898551
            ]
          ]
        }
      ]
    }
  ]
}

























