{
  "d": {
    "Object": "Pages",
    "pages": [
      {
        "name": "Pages",
        "icon_name": "dashboard",
        "id": "11",
        "FontSize": 15,
        "FontFamily": "sans-serif",
        "FontColor": "white",
        "BackColor": "black",
        "subPages": [
          {
            "name": "Empty",
            "id": "0",
            "icon_name": "dashboard",
            "FontSize": 15,
            "FontFamily": "sans-serif",
            "FontColor": "red",
            "BackColor": "black"
          },
          {
            "name": "Gauge",
            "id": "1",
            "icon_name": "check",
            "FontSize": 15,
            "FontFamily": "sans-serif",
            "FontColor": "green",
            "BackColor": "black"
          },
          {
            "name": "Donut",
            "id": "2",
            "icon_name": "bus",
            "FontSize": 15,
            "FontFamily": "sans-serif",
            "FontColor": "white",
            "BackColor": "black"
          },
          {
            "name": "Stacked",
            "id": "3",
            "icon_name": "car",
            "FontSize": 15,
            "FontFamily": "sans-serif",
            "FontColor": "white",
            "BackColor": "black"
          },
          {
            "name": "Ordered",
            "id": "4",
            "icon_name": "cubes",
            "FontSize": 15,
            "FontFamily": "sans-serif",
            "FontColor": "white",
            "BackColor": "black"
          },
          {
            "name": "Line",
            "id": "5",
            "icon_name": "coffee",
            "FontSize": 15,
            "FontFamily": "sans-serif",
            "FontColor": "white",
            "BackColor": "black"
          },
          {
            "name": "Easy Pie",
            "id": "6",
            "icon_name": "eye",
            "FontSize": 15,
            "FontFamily": "sans-serif",
            "FontColor": "white",
            "BackColor": "black"
          },
          {
            "name": "Table",
            "id": "7",
            "icon_name": "eye",
            "FontSize": 15,
            "FontFamily": "sans-serif",
            "FontColor": "white",
            "BackColor": "black"
          },
          {
            "name": "Europe Map",
            "id": "8",
            "icon_name": "eye",
            "FontSize": 15,
            "FontFamily": "sans-serif",
            "FontColor": "white",
            "BackColor": "black"
          },
          {
            "name": "Rectangles",
            "id": "9",
            "icon_name": "eye",
            "FontSize": 15,
            "FontFamily": "sans-serif",
            "FontColor": "white",
            "BackColor": "black"
          },
          {
            "name": "Links",
            "id": "10",
            "icon_name": "eye",
            "FontSize": 15,
            "FontFamily": "sans-serif",
            "FontColor": "white",
            "BackColor": "black"
          },
          {
            "name": "All",
            "id": "11",
            "icon_name": "film",
            "FontSize": 15,
            "FontFamily": "sans-serif",
            "FontColor": "white",
            "BackColor": "black"
          }
        ]
      }
    ]
  }
}
