{
  "Object" : "Graphs",
  "ObjectId" : "O2",
  "ObjectData" : [
    {
      "name" : "donut",
      "id" : 4,
      "data" : [
        {"label": "Download Sales", "value": 12},
        {"label": "In-Store Sales", "value": 30},
        {"label": "Mail-Order Sales", "value": 20}
      ]
    },

    {
      "name" : "stacked",
      "id" : 5,
      "data" : {
        "options" : {
          "series": {
            "shadowSize": 0,
            "stack": true
          },
          "bars": {
            "show": true,
            "fill": true,
            "lineWidth": 0,
            "fillColor": {
              "colors": [{ "opacity":0.6 }, { "opacity":0.8}]
            },
            "colors": ["#428bca","#d9534f","#A40778"]
          },
          "xaxis": {
            "font": {
              "color": "#ccc"
            }
          },
          "yaxis": {
            "font": {
              "color": "#ccc"
            }
          },
          "grid": {
            "hoverable": true,
            "clickable": true,
            "borderWidth": 0,
            "color": "#ccc"
          },
          "tooltip": true
        },
        "content" : [{
          "data": [[10, 50], [20, 80], [30, 60], [40, 40]],
          "label": "A"
        }, {
          "data": [[10, 30], [20, 50], [30, 70], [40, 50]],
          "label": "B"
        }, {
          "data": [[10, 40], [20, 60], [30, 90], [40, 60]],
          "label": "C"
        }]
      }
    },

    {
      "name" : "ordered",
      "id" : 6,
      "data" : {
        "options" : {
          "series": {
            "shadowSize": 0
          },
          "bars": {
            "show": true,
            "fill": true,
            "lineWidth": 0,
            "fillColor": {
              "colors": [{ "opacity":0.6 }, { "opacity":0.8}]
            },
            "order": 1,
            "colors": ["#428bca","#d9534f","#A40778"]
          },
          "xaxis": {
            "font": {
              "color": "#ccc"
            }
          },
          "yaxis": {
            "font": {
              "color": "#ccc"
            }
          },
          "grid": {
            "hoverable": true,
            "clickable": true,
            "borderWidth": 0,
            "color": "#ccc"
          },
          "tooltip": true
        },
        "content" : [{
          "data": [[10, 50], [20, 80], [30, 60], [40, 40]],
          "label": "A"
        }, {
          "data": [[10, 30], [20, 50], [30, 70], [40, 50]],
          "label": "B"
        }, {
          "data": [[10, 40], [20, 60], [30, 90], [40, 60]],
          "label": "C"
        }]
      }
    },

    {
      "name" : "line",
      "id" : 7,
      "data" : {
        "options" : {
          "colors": ["#a2d200", "#cd97eb"],
          "series": {
            "shadowSize": 0
          },
          "xaxis":{
            "font": {
              "color": "#ccc"
            },
            "position": "bottom",
            "ticks": [
              [ 1, "Jan" ], [ 2, "Feb" ], [ 3, "Mar" ], [ 4, "Apr" ], [ 5, "May" ], [ 6, "Jun" ], [ 7, "Jul" ], [ 8, "Aug" ], [ 9, "Sep" ], [ 10, "Oct" ], [ 11, "Nov" ], [ 12, "Dec" ]
            ]
          },
          "yaxis": {
            "font": {
              "color": "#ccc"
            }
          },
          "grid": {
            "hoverable": true,
            "clickable": true,
            "borderWidth": 0,
            "color": "#ccc"
          },
          "tooltip": true,
          "tooltipOpts": {
            "content": "%s: %y.4",
            "defaultTheme": false,
            "shifts": {
              "x": 0,
              "y": 20
            }
          }
        },
        "content" :
        [
          {
            "data": [[1,5.3],[2,5.9],[3,7.2],[4,8],[5,7],[6,6.5],[7,6.2],[8,6.7],[9,7.2],[10,7],[11,6.8],[12,7]],
            "label": "Sales",
            "points": {
              "show": true,
              "radius": 6
            },
            "splines": {
              "show": true,
              "tension": 0.45,
              "lineWidth": 5,
              "fill": 0
            }
          }, {
          "data": [[1,6.6],[2,7.4],[3,8.6],[4,9.4],[5,8.3],[6,7.9],[7,7.2],[8,7.7],[9,8.9],[10,8.4],[11,8],[12,8.3]],
          "label": "Orders",
          "points": {
            "show": true,
            "radius": 6
          },
          "splines": {
            "show": true,
            "tension": 0.45,
            "lineWidth": 5,
            "fill": 0
          }
        }
        ]
      }
    },

    {
      "name" : "pie",
      "id" : 8,
      "data" : {
        "percent": 65,
        "options": {
          "animate": {
            "duration": 3000,
            "enabled": true
          },
          "barColor": "#1693A5",
          "lineCap": "round",
          "size": 180,
          "lineWidth": 5
        }
      }
    },

    {
      "name" : "gauge",
      "id" : 9,
      "data" : {
        "options": {
          "lines": 12,
          "angle": 0.15,
          "lineWidth": 0.44,
          "pointer": {
            "length": 1,
            "strokeWidth": 0.035,
            "color": "#000000"
          },
          "limitMax": "false",
          "colorStart": "#6FADCF",
          "colorStop": "#8FC0DA",
          "strokeColor": "#f2f2f2",
          "generateGradient": true,
          "percentColors": [
            [0.0, "#1693A5"],
            [1.0, "#1693A5"]
          ]
        },
        "content": {
          "maxValue": 3000,
          "animationSpeed": 40,
          "val": 658
        }
      }
    }
  ]
}